Week 10 Lab: Applications of Tidyverse Skills
…
Condition E : At least one pair of identical / nearly-identical values

duplicates <- filtered_data |>  # Filter for Ang Mo Kio
  select(floor_area_sqm, resale_price) |>  # Keep relevant columns
  group_by(floor_area_sqm, resale_price) |>  
  summarise(count = n(), .groups = "drop") |>  # Count occurrences properly
  filter(count > 1) |>  # Keep only duplicates
  arrange(desc(count))  # Sort by highest count

duplicates

# A tibble: 203 × 3
   floor_area_sqm resale_price count
            <dbl>        <int> <int>
 1             67        47000   148
 2             68        47000    95
 3             73        47000    48
 4             67        47200    38
 5             82        57000    31
 6             68        47200    30
 7             67        45000    23
 8             92        72000    22
 9             67        40000    21
10             74        47000    20
# ℹ 193 more rows
…
# Load the morley dataset
data(morley)

# Convert the dataset to a tibble
morley <- as_tibble(morley)

# Convert the Expt column to a factor
morley <- morley |>
  mutate(Expt = as.factor(Expt))

# Display the updated tibble
print(morley)

# A tibble: 100 × 3
   Expt    Run Speed
   <fct> <int> <int>
 1 1         1   850
 2 1         2   740
 3 1         3   900
 4 1         4  1070
 5 1         5   930
 6 1         6   850
 7 1         7   950
 8 1         8   980
 9 1         9   980
10 1        10   880
# ℹ 90 more rows
…
